\babel@toc {portuguese}{}
\addvspace {10\p@ }
\addvspace {10\p@ }
\contentsline {figure}{\numberline {2.1}{\ignorespaces Exemplo dos s\IeC {\'\i }mbolos pictogr\'aficos de comunica\c c\~ao}}{10}{figure.caption.8}% 
\contentsline {figure}{\numberline {2.2}{\ignorespaces Exemplo do modelo Tech Scan 8 digitalizador da fala}}{11}{figure.caption.9}% 
\contentsline {figure}{\numberline {2.3}{\ignorespaces Exemplo do modelo IntelliKeys USB}}{12}{figure.caption.10}% 
\contentsline {figure}{\numberline {2.4}{\ignorespaces Exemplo do modelo TrackerPro}}{12}{figure.caption.11}% 
\contentsline {figure}{\numberline {2.5}{\ignorespaces Exemplo do software Grid 3}}{13}{figure.caption.12}% 
\contentsline {figure}{\numberline {2.6}{\ignorespaces Exemplo do software MagicKey}}{13}{figure.caption.13}% 
\contentsline {figure}{\numberline {2.7}{\ignorespaces Imagem do dispositivo IBM Simon}}{14}{figure.caption.14}% 
\contentsline {figure}{\numberline {2.8}{\ignorespaces Imagem do dispositivo BlackBerry 5810}}{15}{figure.caption.15}% 
\contentsline {figure}{\numberline {2.9}{\ignorespaces Imagem do dispositivo Apple iPhone}}{15}{figure.caption.16}% 
\contentsline {figure}{\numberline {2.10}{\ignorespaces Imagem do dispositivo HTC Dream}}{16}{figure.caption.17}% 
\contentsline {figure}{\numberline {2.11}{\ignorespaces Apple iPhone X, Google Pixel 2 XL e Samsung Galaxy S9+}}{16}{figure.caption.18}% 
\contentsline {figure}{\numberline {2.12}{\ignorespaces Imagens do produto PT Jaws}}{20}{figure.caption.22}% 
\contentsline {figure}{\numberline {2.13}{\ignorespaces Imagem do produto PT Focus 14}}{20}{figure.caption.23}% 
\contentsline {figure}{\numberline {2.14}{\ignorespaces Imagem do produto PT ZoomText}}{21}{figure.caption.24}% 
\contentsline {figure}{\numberline {2.15}{\ignorespaces Imagem do produto PT Smart Beetle}}{21}{figure.caption.25}% 
\contentsline {figure}{\numberline {2.16}{\ignorespaces Imagem do produto PT Locu\c c\~ao Port\'atil}}{22}{figure.caption.26}% 
\contentsline {figure}{\numberline {2.17}{\ignorespaces Imagem do produto PT SPC}}{22}{figure.caption.27}% 
\contentsline {figure}{\numberline {2.18}{\ignorespaces Imagem do produto PT Grid 3}}{23}{figure.caption.28}% 
\contentsline {figure}{\numberline {2.19}{\ignorespaces Imagem do produto PT MagicContact}}{23}{figure.caption.29}% 
\contentsline {figure}{\numberline {2.20}{\ignorespaces Imagem do produto PT MagicKey}}{24}{figure.caption.30}% 
\contentsline {figure}{\numberline {2.21}{\ignorespaces Imagem do produto PT Magic Keyboard}}{24}{figure.caption.31}% 
\contentsline {figure}{\numberline {2.22}{\ignorespaces Imagem do produto PT Magic Eye}}{25}{figure.caption.32}% 
\contentsline {figure}{\numberline {2.23}{\ignorespaces Imagem do produto PT PC EYE Mini}}{25}{figure.caption.33}% 
\contentsline {figure}{\numberline {2.24}{\ignorespaces Imagens da aplica\c c\~ao Vox4all}}{26}{figure.caption.34}% 
\contentsline {figure}{\numberline {2.25}{\ignorespaces Imagens da aplica\c c\~ao Oscar Feels}}{26}{figure.caption.35}% 
\contentsline {figure}{\numberline {2.26}{\ignorespaces Imagens do produto Symbol LAB}}{27}{figure.caption.36}% 
\contentsline {figure}{\numberline {2.27}{\ignorespaces Imagens do produto Look to Learn}}{27}{figure.caption.37}% 
\contentsline {figure}{\numberline {2.28}{\ignorespaces Imagens do produto Mind Express 4}}{28}{figure.caption.38}% 
\contentsline {figure}{\numberline {2.29}{\ignorespaces Imagem do produto Comunicar com S\IeC {\'\i }mbolos}}{28}{figure.caption.39}% 
\contentsline {figure}{\numberline {2.30}{\ignorespaces Imagens do produto Boardmaker \& Speaking Dynamically Pro}}{29}{figure.caption.40}% 
\contentsline {figure}{\numberline {2.31}{\ignorespaces Imagem do produto InVEnto 2}}{29}{figure.caption.41}% 
\contentsline {figure}{\numberline {2.32}{\ignorespaces Imagens do produto Jogos Mem\'oria -- Junior}}{30}{figure.caption.42}% 
\contentsline {figure}{\numberline {2.33}{\ignorespaces Imagens do produto Letras e Palavras}}{30}{figure.caption.43}% 
\contentsline {figure}{\numberline {2.34}{\ignorespaces Imagens do produto Primeiros Anos Mix}}{31}{figure.caption.44}% 
\contentsline {figure}{\numberline {2.35}{\ignorespaces Imagens do produto MIND7}}{31}{figure.caption.45}% 
\contentsline {figure}{\numberline {2.36}{\ignorespaces Imagens do produto Proloquo2Go}}{32}{figure.caption.46}% 
\contentsline {figure}{\numberline {2.37}{\ignorespaces Imagens do produto TouchChat HD}}{32}{figure.caption.47}% 
\contentsline {figure}{\numberline {2.38}{\ignorespaces Imagens do produto Avaz Pro -- AAC app for Autism}}{33}{figure.caption.48}% 
\contentsline {figure}{\numberline {2.39}{\ignorespaces Imagens do produto Social Skills With Billy}}{33}{figure.caption.49}% 
\contentsline {figure}{\numberline {2.40}{\ignorespaces Imagens do produto Autism/DTT Shapes}}{34}{figure.caption.50}% 
\contentsline {figure}{\numberline {2.41}{\ignorespaces Imagens do produto iCommunicate}}{34}{figure.caption.51}% 
\contentsline {figure}{\numberline {2.42}{\ignorespaces Imagens do produto iPrompts PRO}}{35}{figure.caption.52}% 
\contentsline {figure}{\numberline {2.43}{\ignorespaces Imagens do produto MyTalkTools}}{35}{figure.caption.53}% 
\contentsline {figure}{\numberline {2.44}{\ignorespaces Imagens do produto Abilipad}}{36}{figure.caption.54}% 
\contentsline {figure}{\numberline {2.45}{\ignorespaces Imagens do produto Speech FlipBook Standard}}{36}{figure.caption.55}% 
\contentsline {figure}{\numberline {2.46}{\ignorespaces Imagens do produto Voice4u AAC Communication}}{37}{figure.caption.56}% 
\contentsline {figure}{\numberline {2.47}{\ignorespaces Imagens do produto LetMeTalk}}{37}{figure.caption.57}% 
\contentsline {figure}{\numberline {2.48}{\ignorespaces Imagens do produto TalkTablet}}{38}{figure.caption.58}% 
\contentsline {figure}{\numberline {2.49}{\ignorespaces Imagens do produto TalkTablet}}{38}{figure.caption.59}% 
\contentsline {figure}{\numberline {2.50}{\ignorespaces Imagens do produto Samsung LOOK AT ME}}{39}{figure.caption.60}% 
\contentsline {figure}{\numberline {2.51}{\ignorespaces Imagens do produto Montessori Words \& Phonics}}{39}{figure.caption.61}% 
\contentsline {figure}{\numberline {2.52}{\ignorespaces Imagens do produto Autism Language and Cognitive Therapy with MITA}}{40}{figure.caption.62}% 
\contentsline {figure}{\numberline {2.53}{\ignorespaces Imagens do produto EKUI Alfabeto}}{40}{figure.caption.63}% 
\contentsline {figure}{\numberline {2.54}{\ignorespaces Imagens do produto Puzzles educativos para mi\'udo}}{41}{figure.caption.64}% 
\contentsline {figure}{\numberline {2.55}{\ignorespaces Imagens do produto Smile and Learn: Jogos educativos para crian\c cas}}{41}{figure.caption.65}% 
\contentsline {figure}{\numberline {2.56}{\ignorespaces Imagem do livro O menino dos dedos tristes}}{42}{figure.caption.66}% 
\contentsline {figure}{\numberline {2.57}{\ignorespaces Imagem do livro Piu Caganita}}{43}{figure.caption.67}% 
\contentsline {figure}{\numberline {2.58}{\ignorespaces Imagem do livro A Rainha das Rosas}}{43}{figure.caption.68}% 
\addvspace {10\p@ }
\contentsline {figure}{\numberline {3.1}{\ignorespaces Popula\c c\~ao portuguesa com dificuldade nas atividades di\'arias}}{47}{figure.caption.70}% 
\addvspace {10\p@ }
\contentsline {figure}{\numberline {4.1}{\ignorespaces Estrutura do documento Game Design Canvas}}{60}{figure.caption.72}% 
\contentsline {figure}{\numberline {4.2}{\ignorespaces Documento Game Design Canvas da aplica\c c\~ao}}{61}{figure.caption.73}% 
\contentsline {figure}{\numberline {4.3}{\ignorespaces Diferen\c ca entre os modelos monol\IeC {\'\i }tico e micro-servi\c cos}}{62}{figure.caption.74}% 
\contentsline {figure}{\numberline {4.4}{\ignorespaces Diferen\c ca da escala entre as duas arquiteturas: monol\IeC {\'\i }tica e de micro servi\c cos}}{63}{figure.caption.75}% 
\contentsline {figure}{\numberline {4.5}{\ignorespaces Arquitetura monolit\IeC {\'\i }ca da Uber}}{64}{figure.caption.76}% 
\contentsline {figure}{\numberline {4.6}{\ignorespaces Arquitetura micro-servi\c cos da Uber}}{65}{figure.caption.77}% 
\contentsline {figure}{\numberline {4.7}{\ignorespaces Arquitetura da plataforma Android}}{67}{figure.caption.78}% 
\contentsline {figure}{\numberline {4.8}{\ignorespaces Analogia da arquitetura da aplica\c c\~ao desenvolvida com a arquitetura da plataforma Android.}}{68}{figure.caption.79}% 
\contentsline {figure}{\numberline {4.9}{\ignorespaces Imagem da arquitetura desenvolvida para a aplica\c c\~ao}}{69}{figure.caption.80}% 
\contentsline {figure}{\numberline {4.10}{\ignorespaces Criar projeto no Android Studio, passo inicial}}{70}{figure.caption.81}% 
\contentsline {figure}{\numberline {4.11}{\ignorespaces Criar projeto no Android Studio, selecionar o tipo de projeto}}{71}{figure.caption.82}% 
\contentsline {figure}{\numberline {4.12}{\ignorespaces Criar projeto no Android Studio, configura\c c\~ao inicial do projeto}}{71}{figure.caption.83}% 
\contentsline {figure}{\numberline {4.13}{\ignorespaces Criar projeto no Android Studio, estrutura do projeto}}{72}{figure.caption.84}% 
\contentsline {figure}{\numberline {4.14}{\ignorespaces Op\c c\~ao para executar a task install no gradle}}{74}{figure.caption.85}% 
\contentsline {figure}{\numberline {4.15}{\ignorespaces Criar projeto h\IeC {\'\i }brido no Android Studio, passo inicial criando a library}}{76}{figure.caption.86}% 
\contentsline {figure}{\numberline {4.16}{\ignorespaces Criar m\'odulo dentro do projeto no Android Studio}}{76}{figure.caption.87}% 
\contentsline {figure}{\numberline {4.17}{\ignorespaces Estrutura do projeto no Android Studio com a library e a aplica\c c\~ao}}{78}{figure.caption.88}% 
\contentsline {figure}{\numberline {4.18}{\ignorespaces Op\c c\~oes do gradle para compilar e executar projeto com a aplica\c c\~ao e a library}}{80}{figure.caption.89}% 
\contentsline {figure}{\numberline {4.19}{\ignorespaces Imagens do ecr\~a inicial e menu principal I}}{83}{figure.caption.90}% 
\contentsline {figure}{\numberline {4.20}{\ignorespaces Imagens do ecr\~a inicial e menu principal II}}{83}{figure.caption.91}% 
\contentsline {figure}{\numberline {4.21}{\ignorespaces Imagens do livro multim\'edia I}}{86}{figure.caption.92}% 
\contentsline {figure}{\numberline {4.22}{\ignorespaces Imagens do livro multim\'edia II}}{87}{figure.caption.93}% 
\contentsline {figure}{\numberline {4.23}{\ignorespaces Imagens do livro multim\'edia com os pictogramas I}}{93}{figure.caption.94}% 
\contentsline {figure}{\numberline {4.24}{\ignorespaces Imagens do livro multim\'edia com os pictogramas II}}{93}{figure.caption.95}% 
\contentsline {figure}{\numberline {4.25}{\ignorespaces Imagens do livro multim\'edia com a l\IeC {\'\i }ngua gestual portuguesa I}}{98}{figure.caption.96}% 
\contentsline {figure}{\numberline {4.26}{\ignorespaces Imagens do livro multim\'edia com a l\IeC {\'\i }ngua gestual portuguesa II}}{98}{figure.caption.97}% 
\contentsline {figure}{\numberline {4.27}{\ignorespaces Imagens do jogo desenhar I}}{101}{figure.caption.98}% 
\contentsline {figure}{\numberline {4.28}{\ignorespaces Imagens do jogo desenhar II}}{102}{figure.caption.99}% 
\contentsline {figure}{\numberline {4.29}{\ignorespaces Imagens do jogo desenhar III}}{102}{figure.caption.100}% 
\contentsline {figure}{\numberline {4.30}{\ignorespaces Imagens do jogo da mem\'oria I}}{107}{figure.caption.101}% 
\contentsline {figure}{\numberline {4.31}{\ignorespaces Imagens do jogo da mem\'oria II}}{107}{figure.caption.102}% 
\contentsline {figure}{\numberline {4.32}{\ignorespaces Imagens do jogo da mem\'oria III}}{108}{figure.caption.103}% 
\contentsline {figure}{\numberline {4.33}{\ignorespaces Imagens do jogo de quebra-cabe\c ca I}}{113}{figure.caption.104}% 
\contentsline {figure}{\numberline {4.34}{\ignorespaces Imagens do jogo de quebra-cabe\c ca II}}{113}{figure.caption.105}% 
\contentsline {figure}{\numberline {4.35}{\ignorespaces Imagens do jogo de quebra-cabe\c ca III}}{114}{figure.caption.106}% 
\contentsline {figure}{\numberline {4.36}{\ignorespaces Imagens do jogo de completar as palavras I}}{118}{figure.caption.107}% 
\contentsline {figure}{\numberline {4.37}{\ignorespaces Imagens do jogo de completar as palavras II}}{119}{figure.caption.108}% 
\contentsline {figure}{\numberline {4.38}{\ignorespaces Imagens do jogo de completar as palavras III}}{119}{figure.caption.109}% 
\contentsline {figure}{\numberline {4.39}{\ignorespaces Imagens dos testes com os utilizadores e apresenta\c c\~oes I}}{146}{figure.caption.111}% 
\contentsline {figure}{\numberline {4.40}{\ignorespaces Imagens dos testes com os utilizadores e apresenta\c c\~oes II}}{147}{figure.caption.112}% 
\addvspace {10\p@ }
\contentsline {figure}{\numberline {5.1}{\ignorespaces Imagens da aplica\c c\~ao Ernesto, Jogos para a Gaguez}}{152}{figure.caption.115}% 
\contentsline {figure}{\numberline {5.2}{\ignorespaces Imagens da aplica\c c\~ao Os Guerreiros do Pequeno Artur}}{153}{figure.caption.116}% 
\contentsline {figure}{\numberline {5.3}{\ignorespaces Imagens da aplica\c c\~ao Prancha Inclusiva -- Esta\c c\~oes do Ano}}{154}{figure.caption.117}% 
\contentsline {figure}{\numberline {5.4}{\ignorespaces Reportagem no Programa Portugal em Direto -- RTP}}{159}{figure.caption.118}% 
\contentsline {figure}{\numberline {5.5}{\ignorespaces Apresenta\c c\~ao no Agrupamento de Escolas Quinta de Marrocos}}{159}{figure.caption.119}% 
\contentsline {figure}{\numberline {5.6}{\ignorespaces Reportagem no jornal O Interior}}{160}{figure.caption.120}% 
\contentsline {figure}{\numberline {5.7}{\ignorespaces Reportagem no jornal Terras da Beira}}{161}{figure.caption.121}% 
\contentsline {figure}{\numberline {5.8}{\ignorespaces Reportagem no jornal Di\'ario de Viseu}}{162}{figure.caption.122}% 
\addvspace {10\p@ }
\addvspace {10\p@ }
