\relax 
\providecommand{\transparent@use}[1]{}
\providecommand\hyper@newdestlabel[2]{}
\providecommand\HyperFirstAtBeginDocument{\AtBeginDocument}
\HyperFirstAtBeginDocument{\ifx\hyper@anchor\@undefined
\global\let\oldcontentsline\contentsline
\gdef\contentsline#1#2#3#4{\oldcontentsline{#1}{#2}{#3}}
\global\let\oldnewlabel\newlabel
\gdef\newlabel#1#2{\newlabelxx{#1}#2}
\gdef\newlabelxx#1#2#3#4#5#6{\oldnewlabel{#1}{{#2}{#3}}}
\AtEndDocument{\ifx\hyper@anchor\@undefined
\let\contentsline\oldcontentsline
\let\newlabel\oldnewlabel
\fi}
\fi}
\global\let\hyper@last\relax 
\gdef\HyperFirstAtBeginDocument#1{#1}
\providecommand\HyField@AuxAddToFields[1]{}
\providecommand\HyField@AuxAddToCoFields[2]{}
\catcode `"\active 
\@input{pagina_rosto/capa.aux}
\babel@aux{portuguese}{}
\@input{pagina_rosto/pagina_rosto.aux}
\@input{agradecimentos/agradecimentos.aux}
\@input{resumo/resumo.aux}
\@input{abstract/abstract.aux}
\@input{cap1/capitulo_1.aux}
\@input{cap2/capitulo_2.aux}
\@input{cap3/capitulo_3.aux}
\@input{cap4/capitulo_4.aux}
\@input{cap5/capitulo_5.aux}
\@input{cap6/capitulo_6.aux}
\@input{bibliografia/bibliografia.aux}
\@input{anexos/anexos.aux}
