\BOOKMARK [0][]{chapter.1}{Introdu\347\343o}{}% 1
\BOOKMARK [1][]{section.1.1}{Motiva\347\343o}{chapter.1}% 2
\BOOKMARK [1][]{section.1.2}{Desafios Identificados}{chapter.1}% 3
\BOOKMARK [1][]{section.1.3}{Objetivos}{chapter.1}% 4
\BOOKMARK [1][]{section.1.4}{Solu\347\343o Proposta para o Projeto}{chapter.1}% 5
\BOOKMARK [1][]{section.1.5}{Estrutura da Disserta\347\343o}{chapter.1}% 6
\BOOKMARK [0][]{chapter.2}{Estado da Arte}{}% 7
\BOOKMARK [1][]{section.2.1}{Necessidades Especiais de Educa\347\343o}{chapter.2}% 8
\BOOKMARK [1][]{section.2.2}{Tecnologias de Informa\347\343o e Comunica\347\343o na Educa\347\343o Especial}{chapter.2}% 9
\BOOKMARK [1][]{section.2.3}{Dispositivos M\363veis}{chapter.2}% 10
\BOOKMARK [1][]{section.2.4}{Produtos Existentes para Educa\347\343o Especial e Acessibilidade}{chapter.2}% 11
\BOOKMARK [0][]{chapter.3}{Caracteriza\347\343o de Defici\352ncia}{}% 12
\BOOKMARK [1][]{section.3.1}{Defici\352ncia}{chapter.3}% 13
\BOOKMARK [1][]{section.3.2}{Defici\352ncia Intelectual}{chapter.3}% 14
\BOOKMARK [1][]{section.3.3}{Defici\352ncia Auditiva e Surdez}{chapter.3}% 15
\BOOKMARK [0][]{chapter.4}{ Desenvolvimento da Aplica\347\343o ``O menino que tinha medo do escuro''}{}% 16
\BOOKMARK [1][]{section.4.1}{Solu\347\343o Desenvolvida}{chapter.4}% 17
\BOOKMARK [1][]{section.4.2}{Processo de Desenvolvimento de Software}{chapter.4}% 18
\BOOKMARK [2][]{subsection.4.2.1}{Requisitos}{section.4.2}% 19
\BOOKMARK [2][]{subsection.4.2.2}{Game Design}{section.4.2}% 20
\BOOKMARK [2][]{subsection.4.2.3}{Arquitetura de Software Utilizada}{section.4.2}% 21
\BOOKMARK [2][]{subsection.4.2.4}{Plataforma Android}{section.4.2}% 22
\BOOKMARK [1][]{section.4.3}{Implementa\347\343o da Aplica\347\343o}{chapter.4}% 23
\BOOKMARK [2][]{subsection.4.3.1}{Aplica\347\343o}{section.4.3}% 24
\BOOKMARK [2][]{subsection.4.3.2}{M\363dulo \205 Livro Multim\351dia B\341sico}{section.4.3}% 25
\BOOKMARK [2][]{subsection.4.3.3}{M\363dulo \205 Livro Multim\351dia Pictogramas}{section.4.3}% 26
\BOOKMARK [2][]{subsection.4.3.4}{M\363dulo \205 Livro Multim\351dia L\355ngua Gestual Portuguesa}{section.4.3}% 27
\BOOKMARK [2][]{subsection.4.3.5}{M\363dulo \205 Jogo Desenhar}{section.4.3}% 28
\BOOKMARK [2][]{subsection.4.3.6}{M\363dulo \205 Jogo da Mem\363ria}{section.4.3}% 29
\BOOKMARK [2][]{subsection.4.3.7}{M\363dulo \205 Jogo do Puzzle}{section.4.3}% 30
\BOOKMARK [2][]{subsection.4.3.8}{M\363dulo \205 Jogo Completar as Palavras}{section.4.3}% 31
\BOOKMARK [2][]{subsection.4.3.9}{M\363dulo \205 Framework}{section.4.3}% 32
\BOOKMARK [2][]{subsection.4.3.10}{M\363dulo \205 Recursos}{section.4.3}% 33
\BOOKMARK [1][]{section.4.4}{Testes}{chapter.4}% 34
\BOOKMARK [0][]{chapter.5}{Resultados}{}% 35
\BOOKMARK [1][]{section.5.1}{Publica\347\365es e Resultados}{chapter.5}% 36
\BOOKMARK [1][]{section.5.2}{Outros Projetos}{chapter.5}% 37
\BOOKMARK [1][]{section.5.3}{Empreendedorismo}{chapter.5}% 38
\BOOKMARK [1][]{section.5.4}{Divulga\347\365es}{chapter.5}% 39
\BOOKMARK [0][]{chapter.6}{Conclus\343o e Trabalho Futuro}{}% 40
\BOOKMARK [1][]{section.6.1}{Trabalho Futuro}{chapter.6}% 41
\BOOKMARK [0][]{section*.123}{Bibliografia}{}% 42
\BOOKMARK [0][]{appendix.A}{Anexos}{}% 43
\BOOKMARK [1][]{section.A.1}{C\363digo-Fonte da Aplica\347\343o}{appendix.A}% 44
